{
  "project_info": {
    "project_number": "708141697511",
    "firebase_url": "https://firecloud-e0086.firebaseio.com",
    "project_id": "firecloud-e0086",
    "storage_bucket": "firecloud-e0086.appspot.com"
  },
  "client": [
    {
      "client_info": {
        "mobilesdk_app_id": "1:708141697511:android:79bd61f6c36f35e9",
        "android_client_info": {
          "package_name": "com.raut.firecloud"
        }
      },
      "oauth_client": [
        {
          "client_id": "708141697511-852up7r6f7s3k6tl32649jje4e9qqgkl.apps.googleusercontent.com",
          "client_type": 1,
          "android_info": {
            "package_name": "com.raut.firecloud",
            "certificate_hash": "55ACB279E40B4A2C89E974758071227086526AC0"
          }
        },
        {
          "client_id": "708141697511-mc4v559k3k1f64nb5rk8attkcdlqm7ai.apps.googleusercontent.com",
          "client_type": 3
        }
      ],
      "api_key": [
        {
          "current_key": "AIzaSyDxIYf1fKP4vQ2d56aUF8N7WelOrq09kV0"
        }
      ],
      "services": {
        "analytics_service": {
          "status": 1
        },
        "appinvite_service": {
          "status": 2,
          "other_platform_oauth_client": [
            {
              "client_id": "708141697511-mc4v559k3k1f64nb5rk8attkcdlqm7ai.apps.googleusercontent.com",
              "client_type": 3
            }
          ]
        },
        "ads_service": {
          "status": 2
        }
      }
    }
  ],
  "configuration_version": "1"
}